1,1,2,3,4,5,6,7,8,9,10,11,12
A,hchA,bglG,cytR,fnr,hupB,acnA,nagC,rhaR,tyrR,rcsC,aceF,sdhC
B,pflB,btuR,deoR,fucR,argP,gapC,nanR,fumA,uidR,pykF,acnB,sdhD
C,ada,cadC,dsdC,galR,idnR,melR,nhaR,soxR,uxuR,fruR,prpC,sdhA
D,adiY,cbl,ebgR,appB,ilvY,metJ,pdhR,soxS,xapR,ihfA,cyoD,sdhB
E,appY,chbR,envR,adhE,leuO,metR,perR,stpA,zntR,rbsR,cyoC,zwf
F,argR,appC,envY,ihfB,lrp,mhpR,phnF,tdcA,yafC,sdiA,cyoB,sucB
G,asnC,csgD,fadR,hns,lysR,nac,fumC,treR,ybdO,srlR,cyoA,sucC
H,betI,cynR,fis,hupA,malI,gapC,purR,trpR,ybeF,talB,fdrA,galM

5,1,2,3,4,5,6,7,8,9,10,11,12
A,barA,uhpA,basR,treA,poxB,tktA,tsx,aer,nuoH,cusR,nuoE,talA
B,qseB,glnG,dcuR,cpsB,ldhA,yfcT,yehB,tap,ykfA,envZ,yfgM,ypjB
C,qseC,glnL,dcuS,rbsB,dld,yfdF,wcaA,nuoJ,nuoG,glgC,nuoB,tktB
D,rpoN,cpxA,creB,oppA,lldD,nuoM,nuoL,helD,nuoF,ppk,nuoA,cusB
E,arcB,cpxR,creC,yhaK,pgm,cusA,nuoK,hrpA,yahL,ackA,yfiN,yqaD
F,ompR,zraS,arcA,rnt,gltA,mipA,gspA,moaA,aceE,yfdV,glk,glcB
G,rpoZ,zraR,glgS,gnd,cydB,fhuA,hofQ,speE,lpd,ypdI,maeB,hha
H,uhpB,basS,pykA,pta,nuoN,pstB,yhiI,renD,fbp,yfeU,yfjV,mdh

7,1,2,3,4,5,6,7,8,9,10,11,12
A,yhfW,cirA,ybhC,rpiB,wza,frdD,deoB,ybhD,ynfL,ppdD,tesA,pepT
B,rpe,aceB,ycdS,fhuE,fiu,yraJ,ygeL,citA,dbpA,mrcB,kdpD,torR
C,gpmI,mltA,yiaT,fumB,cusC,frdC,ytjC,yeaT,hepA,degP,dacA,umuD
D,pfkA,mltB,yeaY,nlpB,lamB,frdB,gcd,yeiE,hrpB,pepD,dps,phoP
E,fsaB,aceA,slp,ompA,ydeT,yqcB,phoB,citB,lhr,prpR,potH,sohB
F,pflD,pal,pgi,ompC,fimB,yqeI,cybC,yiaU,rhlB,clpP,clpA,narL
G,ppc,pgpB,nlpE,ompF,fimD,frdA,phoR,yidZ,srmB,clpX,pepN,narX
H,ydeU,ompT,fadL,ompN,fimE,ygeF,glpX,yjiE,yoaA,lon,hyaD,ydcP

9,1,2,3,4,5,6,7,8,9,10,11,12
A,pqqL,cheY,nlpD,agaR,hslV,yhjJ,hflK,yejG,yfaD,yfbP,yfdM,yfeD
B,sppA,mepA,iap,sohA,frvX,prlC,hflC,yfaP,ypaA,yfbR,yfdO,yfeK
C,htpX,ypdF,ptr,yhbU,pepQ,zntA,pepA,yfaQ,yfaU,yfcD,yfdQ,yfeY
D,rstA,hyfR,ygeY,dacB,cheA,ggt,rcsB,yfaS,atoS,evgS,yfdR,yfeZ
E,ptrB,pepB,yggG,degQ,yifK,narP,iadA,yfaS,yfbH,yfcL,narQ,eutL
F,rstB,recA,sprT,cheB,dgoK,gspO,radA,yfaT,yfbW,yfcP,yfdX,eutA
G,hisH,hycH,pppA,argC,uvrY,pepE,yeiL,yfaA,evgA,yfcR,ypeC,eutT
H,yegQ,hycI,hybD,hslU,yedV,hflX,yeiN,yfaH,yfbM,yfdK,yfeC,eutQ

11,1,2,3,4,5,6,7,8,9,10,11,12
A,eutP,yeeA,yfjK,yfjX,ygbA,ydfX,ydgC,ydhT,ymcB,yoaH,yebE,yecH
B,ypfE,yeeE,yfjL,ypjF,ygbE,ydfA,ydgT,ydhW,ynjH,yobD,yebG,yecF
C,ypfG,yfiM,yfjM,ygaR,yehK,ydfC,ydgK,ydiH,gnsA,yebO,ycdP,yedD
D,ypfN,yegL,yfjN,yehI,ygbT,ydfD,ydhA,ydiE,yeaC,yccE,yecE,yedE
EyfiR,yehA,ygaW,ygcH,ynfB,ydhK,ydiV,yeaK,yccJ,mdoC,yceH
F,yfhM,yfjG,yfjQ,ygaC,yehM,yehQ,yccV,ydiY,yoaF,yebY,yceB,yodC
G,hcaT,yfjH,yfjW,ygaM,ydfR,ydgD,ydhR,yniB,cbpM,yebZ,yecJ,yedR
H,yfhG,yfjI,yehE,ygaH,ydfU,yehS,ydhS,chbG,yeaR,yobB,yecR,yeeW

15,1,2,3,4,5,6,7,8,9,10,11,12
A,ydcE,ycfT,ymfM,yaiO,yaiE,ymgC,ycgK,ybeL,ybfB,ybiA,ybjO,ycdY
B,yddL,ydfP,ymfR,yaiP,yajB,ylbA,ycgR,ybeR,ybfC,ybiJ,ybjD,ydaL
C,yddG,ykfB,yagW,yaiS,yajD,ylbE,cusF,ychQ,yciG,ybiI,ycbJ,yceI
D,ycfL,ymfL,yagY,yaiV,ymfQ,ylbF,ychH,ybeU,yciN,ymjC,ycbT,yceJ
E,yneG,yagB,yagZ,yaiW,ybaM,ybcI,ybdJ,ybfM,ymjA,ybiU,ycbU,yceD
F,yneK,yagJ,yahE,yaiY,ybaN,ybcN,ybdD,yciC,ybgS,ybjH,ycjY,ycfD
G,ydfZ,yagK,yahG,ymfO,ybaP,ybcO,ybdM,yciE,mpaA,ybjC,ynaJ,ydaC
H,ycfR,yagU,yahO,yaiA,ybbD,ybcQ,ybdN,yciF,ybhP,ybjN,ycdB,ycfK

19,1,2,3,4,5,6,7,8,9,10,11,12
A,yedJ,yfiD,ybdK,ydhH,yacL,allA,yliI,yccR,mraW,ydcQ,sufA,yfcA
B,yegU,ydaE,ybgH,ydiU,yadE,ydaY,ybjL,yccF,ybeY,ygaD,ydjA,ygeA
C,yohL,yadS,ybjE,yebR,yafM,ydbH,ybjR,ydcF,ydcA,ydcY,yeaA,btuF
D,yohJ,yafQ,clpS,yeiH,yafP,ynbE,ybjX,ycdO,ycdK,yncE,iscA,yagP
E,yohK,yagQ,ydaT,frc,ynaK,ynbD,ycaP,yebC,ydcK,ydcD,ygbL,ybhK
F,yeiJ,ydaF,ddpX,yqaE,rdgC,ybgF,ycaR,yedA,yncJ,yncI,ycgB,ychA
G,yeiM,ybbY,rsxA,ygdD,ybaQ,ybhE,ycbB,yeeN,ydeJ,ycdX,ybhB,ycjS
H,yfgL,allC,ydgR,ydaU,ybbB,ybhH,ycbK,yfaE,ydjI,yciV,uspE,abgR

21,1,2,3,4,5,6,7,8,9,10,11,12
A,hcaR,cobB,mraZ,ybaD,yfiK,ybdB,wbbL,ydgA,yfaL,yfcC,yfeO,yfhR
B,truD,yciS,ycjX,ybjQ,yfiA,mngB,ydcJ,yehZ,yfaO,yfcG,yeeX,yphF
C,yaeR,ycjG,ybaW,ycdM,ygaZ,ycaO,yegE,rsxG,yeaO,yfcH,yfeT,yejK
D,mak,yfaW,ybgC,ycdN,ykfG,ymdB,yncK,yeiI,yfbF,yfcJ,ypeA,yfhD
E,ybhM,yfgB,lsrF,yciH,insO,yciA,mdtC,yeiR,arnT,yfdH,yffH,yfhH
F,yciU,yfiH,ycjF,ydiF,yagA,ydcS,mdtD,yejA,yfbB,yedI,yfgF,yfiC
G,yciI,ypjD,yfbL,yeaS,yagR,yddE,yegS,yejH,yfbS,yeeI,yeiB,yfiQ
H,ycfX,ygbM,yaeB,yecI,yagS,yeeD,ydeI,yniA,yedP,ypdC,yfgA,yejL

23,1,2,3,4,5,6,7,8,9,10,11,12
A,yfbK,ygcB,ygdQ,ydiB,rluB,mdtH,yaaI,yciM,ydaN,ydcU,ydhC,yniC
B,ygaF,yfcF,ygeD,dusC,yqaA,ycfH,yacF,gmr,yadK,yadL,mdtK,ynjF
C,ygaV,yfcN,ycbL,ygbJ,ydgG,ygcP,ycgL,puuD,ydaO,yddW,ydhY,pncA
D,ygaP,yfcZ,yfdG,yfeX,yccM,ymfB,ycgV,puuR,ydbA,yaeH,yaeQ,yafT
E,ygaX,yqcE,ycgM,yfhJ,rarA,yqcC,yacH,ycjN,ydbA,ydeE,ydiM,yafK
F,yfbV,ygcF,yddH,rhtA,ygbK,ycgF,ychN,ycjT,ynbA,ydhJ,ydiN,yafO
G,yqaB,yqcD,norV,yfjF,ycdQ,ygdE,ychP,ynaI,ydcN,ydhD,ydiP,yeaB
H,norW,nudH,glxR,ymfC,yceA,yaaX,ychJ,yacC,ydcR,yaeP,yafS,yoaE

25,1,2,3,4,5,6,7,8,9,10,11,12
A,ykfJ,yedL,yqcA,yfaX,yffB,yphA,ybaV,yaiI,ybgK,ybhG,yliJ,yeaG
B,yebK,yafW,ppdC,lomR,yaeJ,yahF,ybaX,ybeT,ybhA,ybiB,yeaL,ycaL
C,frsA,ykfH,sufE,stfR,yafE,yaiX,ybaE,ybdG,ybhI,mntR,ybjJ,ycbY
D,ykfI,yoeE,ydjM,stfQ,ypfI,luxS,ybaZ,ybgL,ybhN,ybiS,yedK,pphA
E,yecO,nrdI,ybcD,ydfT,yafJ,yaiB,frmR,ybeD,ybhO,ybiV,aceK,yccW
F,yecP,mprA,essD,yaaJ,afuB,yaiC,ybaB,ybeX,ycbC,yliE,ycaJ,yccC
G,yecA,pphB,yeeS,thiP,ykgF,yajC,ybaL,ubiF,ynfA,yliF,ycaC,argG
H,yedF,mazG,ynaA,sgrR,yahA,ygdK,ybaK,ybgJ,ybhS,yliG,ycaD,wcaJ

27,1,2,3,4,5,6,7,8,9,10,11,12
A,wcaI,yehY,hfq,yfhQ,ypjL,sodC,cof,dsrB,ygdH,yqjB,yadB,yafU
B,cls,yohD,yfaY,hcaE,gst,tpx,ninE,yeiT,pdxK,yhhW,metQ,yafN
C,cysG,yohF,lpp,yfhL,katG,csdA,uspG,rtn,murP,yaaA,dinJ,yajG
D,wzc,yeiC,yfcY,yfiE,ygbI,ogt,citG,dedD,ygdR,yaaW,ygeH,ybaO
E,asmA,yeiQ,yfdZ,yfiF,ygcN,ygeR,crcB,dedA,cchB,thiQ,yahB,ybaY
F,fadD,yejB,ahpF,yfiB,ygcO,rof,ybgA,flk,cchA,ygeG,yahC,ybaS
G,yohM,qor,eutJ,yfjR,sodA,ivy,ygcJ,ypdE,iscR,yadC,yahK,yagM
H,mog,yejF,gor,yfjU,sodB,yafL,yebT,ypdG,ygaU,yadN,tauD,ybcM

29,1,2,3,4,5,6,7,8,9,10,11,12
A,ybdH,ycaN,yciT,lsrD,ynfM,ybfP,ydjF,erfK,ybjP,wcaK,elbA,ycgX
B,hscC,ycaK,ydbK,lsrB,mdtJ,ydiR,ydjG,yeeR,ycbS,ymfD,yiiQ,rep
C,ybfF,ykgH,ydbC,yneH,folM,ydiS,ydjJ,djlA,yccZ,yfcO,blc,ruvB
D,yagN,ycbZ,yncD,ybcY,ylcE,ydiT,yeaE,hlpA,csgG,yfgC,ycfN,uvrD
E,zitB,ybbV,ybcW,ydfH,ydhF,spy,yeaM,yceO,csgF,ymfH,dksA,rnb
F,nfsA,ymcA,ydeS,ydfI,miaB,ydjX,yebF,sfmD,hslJ,pepP,hscB,ymgA
G,macA,ylbE,ydeW,ydfQ,ydhP,ydjZ,yedS,nfrA,ydiJ,ymfJ,tig,yiaK
H,macB,ychF,lsrC,flxA,sufC,ybgT,ybjM,ybiP,yodA,yhcD,tar,allD

33,1,2,3,4,5,6,7,8,9,10,11,12
A,yedM,ycjQ,yqeB,yqfE,ymgF,yghG,ygiW,zupT,ygjE,ygjM,yqjG,yraO
B,yedX,ydjL,xdhD,ygfH,yggV,yghR,ygiZ,ygiE,ygjF,ygjN,yhaH,yraP
C,yeeZ,agaD,ygfX,yggE,yggW,yghT,mdaB,ygiL,yqjH,ygjQ,yhaI,yraQ
D,ymgB,elaB,ygfY,argO,yggM,yghW,ygiN,yqiJ,yqjI,sstT,garD,yhbP
E,yfbN,elaA,ygfZ,mscS,yggH,yghZ,yqiA,yqiK,ygjH,ygjV,yhaV,yhbQ
F,yfbO,tas,yqfA,yggC,yggX,sufI,yqiB,ygiF,ygjI,yqjA,yraH,yhbS
G,ybdR,xdhB,yqfB,yggD,yqgA,ygiU,nudF,htrG,ygjJ,yqjD,yraK,yhbW
H,rssA,hyuA,ygfF,yggF,yghD,ygiV,ygiC,ygiH,ygjK,yqjE,yraM,nlpI

35,1,2,3,4,5,6,7,8,9,10,11,12
A,yhbY,yhbH,yhcO,yhdV,yheT,yhfX,yhgN,yhhM,hdeA,yhjE,ysaB,yibA
B,yhbE,yhbJ,aaeB,yrdB,yheU,damX,yhhX,yhhN,hdeD,yhjR,yiaH,yibG
C,yrbC,yrbL,ycgI,smg,prkB,yrfB,yhhY,ynaE,yddK,bcsG,bax,yibH
D,yrbD,yhcA,yhdE,yhdN,yhfA,yrfC,yhhZ,yddJ,mdtF,ydeK,yiaJ,yibT
E,yrbE,yhcF,yhdH,yheL,yhfG,nudE,yrhB,yhiN,gadX,yhjV,yiaM,yibL
F,yrbG,yhcG,yhdT,yheM,tsgA,yhgE,yhhA,yhiP,yhjA,yiaC,yiaO,ydhI
G,kdsD,yhcH,dusB,yheN,yhfL,yhgA,yhhK,yhiR,yhjB,ydfV,yiaV,yicC
H,kdsC,yhcM,ycgY,ydaS,yhfS,gntY,yhhF,yhiF,yhjD,yiaG,yiaW,yicH

37,1,2,3,4,5,6,7,8,9,10,11,12
A,setC,yidA,hsrA,rmuC,yihQ,yiiR,yjaG,yjbA,yjcD,phnA,yjeH,yjeB
B,yicS,mdtL,yifE,yihD,yihR,yiiS,yjaH,yjbI,yjcE,yjdA,yjeJ,rlmB
C,ade,yieE,yifB,yihG,yihT,yiiU,yjaB,yjbJ,yjcF,adiC,ydiZ,yjfI
D,yidG,yieF,rffC,yihI,yihU,yiiX,yjbC,yjbL,actP,yjdF,yjeN,yjfJ
E,yidH,yieG,cyaY,yihL,yiiD,yijF,yjbD,yjbM,yjcH,yjdI,yjeO,yjfK
F,yidI,yieH,yigA,yihM,yiiG,yijP,yjbE,yjbQ,yjcO,yjdJ,yjeP,ydjO
G,yidJ,yieI,yigB,yihN,frvA,yijD,yjbG,yjbR,yjcP,yjdK,yjeS,yjfM
H,yidK,cbrC,yigF,ompL,fieF,nudC,yjbH,yjcC,yjcR,yjdL,yjeT,yjfC

39,1,2,3,4,5,6,7,8,9,10,11,12
A,yjfP,ytfM,yjgI,yjhX,yjiR,ytjB,phr,holE,yjiQ,hsdM,hofC,hisL
B,ulaR,ytfN,yjgD,yjhR,yjiS,yjjK,dinI,ruvA,rluA,mrr,hofB,codB
C,yjfY,ytfP,yjgR,yjiC,yjiX,yjjY,mfd,ruvC,dinF,paaH,aroP,cynX
D,yjfZ,yzfA,yjhF,yjiG,yjjG,yjtD,umuC,nudB,uvrA,uidC,yadG,tauB
E,ytfE,ytfQ,yjhG,yobG,yjjU,sbcC,recT,dcm,mutL,nhaA,fhuC,tauC
F,ytfG,yjgA,yjhI,yjgX,yjjW,priC,ydaV,yjhE,kdpF,yaaU,fhuD,araJ
G,ytfJ,pyrL,yjhP,yjiN,yjjI,recR,tus,alkA,holC,kefC,fhuB,brnQ
H,ynjA,yjgH,yjhQ,yjiO,yjjJ,seqA,topB,alkB,trpL,pheM,metN,mdlA

41,1,2,3,4,5,6,7,8,9,10,11,12
A,amtB,fepE,ilvH,ybdL,trpB,paaI,astA,wcaM,cysM,ygeX,ilvN,metB
B,acrB,fepC,proB,ltaE,trpD,paaJ,uhpC,wcaL,glyA,serA,ilvB,argE
C,kefA,thrB,proA,serC,trpE,paaX,yeaU,wcaB,glnB,metC,asnA,argH
D,copA,caiC,mmuM,aroA,puuE,speG,hisG,tnaC,pheA,nanA,ilvM,metA
E,ybaT,leuD,argF,aspC,paaA,zapA,hisD,aroC,tyrA,aroE,ilvE,metH
F,ybbL,leuC,proC,wrbA,paaB,aroH,hisC,sixA,aroF,argD,ilvA,lysC
G,ybbA,leuA,aroL,solA,paaC,astE,hisF,oxc,argA,avtA,metE,alr
H,fes,pheL,aroM,trpA,paaE,astB,hisI,cysK,lysA,cysE,glnA,tyrB

43,1,2,3,4,5,6,7,8,9,10,11,12
A,serB,entF,bioB,moeB,yjgW,ccmC,nadB,sspA,caiE,phoE,ycbR,flgD
B,slt,entC,bioF,moeA,pabB,ccmB,trxC,pabA,thiH,ddlA,csgE,flgE
C,pdxA,entE,bioC,grxA,cobT,menE,gshA,hemX,thiE,ppiD,csgB,flgF
D,nadC,entB,bioD,pncB,cobS,menC,ygdL,ubiE,thiC,sfmA,csgA,flgG
E,panC,lipA,moaB,abgB,cobU,yjhV,idi,fre,lplA,sfmC,flgN,flgI
F,panB,malM,moaC,paaF,wcaD,pdxB,fldB,htgA,htrE,rlpA,flgA,flgJ
G,ilvL,nadA,moaD,paaG,thiM,hemF,visC,rraA,rcsF,ybgP,flgB,ligT
H,panE,bioA,moaE,pdxY,ccmD,pdxJ,gshB,menA,crl,ybgD,flgC,nagZ

45,1,2,3,4,5,6,7,8,9,10,11,12
A,ydeQ,flhB,fliG,rcsA,yraI,rfaS,rffD,fimA,htpG,sapF,cheW,syd
B,hipA,flhC,fliI,wbbH,mtgA,rfaP,rffG,fimC,ahpC,trg,motB,dsbC
C,slyB,fliY,fliK,rfbX,rfaD,rfaG,rffH,fimF,sulA,osmC,motA,ygiS
D,ydhU,fliC,fliL,spr,rfaF,rfaQ,rffM,fimH,cbpA,dicC,otsB,secG
E,nlpC,fliD,fliM,yfcV,rfaL,mltD,ykgM,dnaK,minC,ykgC,ccmG,rrmJ
F,osmE,fliS,fliN,amiA,rfaY,mmuP,cutA,dnaJ,oppB,cedA,bcp,gspC
G,lpxM,fliT,fliP,smpB,rfaJ,rfe,ykgM,betA,oppF,katE,hscA,gspE
H,flhA,fliF,fliQ,yqhH,rfaI,rffE,mpl,betB,osmB,cheR,proX,gspF

47,1,2,3,4,5,6,7,8,9,10,11,12
A,gspG,trmE,gcl,agp,pntA,rfbD,ppx,cysJ,ansB,chiA,pldA,nrfD
B,gspH,speD,ybcF,putA,hdhA,rfbB,hcaB,gudX,glcD,ugpQ,pldB,nrfF
C,gspJ,ldcC,nagD,phoH,gloA,galF,gabD,sdaB,glcC,mdlB,metF,nrfG
D,gspK,gloB,nagA,dadA,ansA,cpsG,cysC,yqeA,gss,sgbH,phnP,fdhF
E,fkpA,yahI,nagB,dadX,sdaA,fcl,cysN,gcvP,yghA,tdh,fdhD,treC
F,fic,cynT,speF,ycjU,ugd,gmd,cysD,gcvH,psiF,kbl,fpr,idnT
G,dppA,cynS,ybiY,ykiB,rfbC,glpQ,cysH,gcvT,gltF,aslB,nrfA,idnO
H,mhpT,ushA,appA,pntB,rfbA,dsdA,cysI,speA,nanE,aslA,nrfC,idnD

49,1,2,3,4,5,6,7,8,9,10,11,12
A,idnK,tesB,wzxC,dgkA,dgt,allR,uvrB,phnK,lpcA,nfnB,hyaB,narJ
B,uxuA,aes,atoB,acs,rnhB,allB,trxB,phnI,lacI,citX,hyaC,narI
C,uxuB,ymcE,eutC,rihC,rnhA,purK,cmk,phnG,mhpA,citD,hyaE,galU
D,caiD,fabH,aas,carB,gpt,purE,pyrD,cadA,mhpF,nmpC,hyaF,citF
E,caiT,fabF,kefG,apaH,codA,rnk,pyrC,cysQ,mhpE,galT,torC,aldA
F,fixB,yciK,rffA,ksgA,sbcD,rna,purU,fixX,frmA,galE,torA,ydcW
G,fixC,ydfG,wzxE,guaC,xseB,rihA,tdk,kefF,malZ,dmsC,grxB,narV
H,pgpA,cfa,cdh,pfs,gsk,nei,sfmF,sfsA,maa,hyaA,ymgE,narW

51,1,2,3,4,5,6,7,8,9,10,11,12
A,narY,manA,yeaX,bglX,napA,eutE,gutM,hypB,ttdA,nirB,glgP,malS
B,narZ,uidB,kdgR,fruK,napF,fdx,hypF,hypC,ttdB,nirD,glgA,yiaI
C,fdnG,uidA,eda,ccmH,atoD,hcaF,hydN,hypD,ebgA,php,glgX,lyxK
D,fdnI,malY,edd,ccmF,atoA,hcaC,ascB,kduI,ebgC,aroB,glgB,mtlD
E,tam,rsxB,torY,ccmE,glpA,hcaD,hycG,yliK,fadH,malQ,treF,lldR
F,uxaB,rsxD,amyA,napC,glpB,hmp,hycF,hybC,uxaA,glpG,xylB,grxC
G,ynfE,rsxE,wcaF,napH,glpC,nrdH,hycE,hybO,uxaC,glpE,xylA,bglB
H,ynfG,chbF,gatD,napG,eutH,srlD,hypA,yqhD,sfsB,glpD,xylR,gltI

53,1,2,3,4,5,6,7,8,9,10,11,12
A,ybhF,fdoI,rnd,rsuA,lepA,pyrE,pyrB,ybbS,relB,yhaJ,phnB,gltL
B,hcr,fdoG,mgsA,plsX,dsbB,rbn,hsdR,tonB,mlrA,sspB,creA,gltK
C,dmsA,ycbQ,ycdN,xapB,nrdE,purD,deoC,torT,inaA,aaeR,dnaQ,gltJ
D,ssuC,recE,amn,xapA,nrdF,purA,deoA,mcrA,aegA,yidP,dinB,nagE
E,rbsK,add,dcd,purM,recB,cpdB,deoD,ycgE,relA,phoU,fepD,potE
F,fadA,nth,cdd,purN,araE,nrdG,ykgD,ycjW,ygeV,cyaA,fepB,kdpC
G,fadB,xthA,nfo,xseA,recJ,nrdD,glnK,feaR,ygiP,yijO,citT,kdpA
H,fdhE,nudG,rihB,purL,endA,pyrI,cueR,maoC,yciX,arpA,tatE,pnuC

55,1,2,3,4,5,6,7,8,9,10,11,12
A,modE,yliC,focA,potC,sapC,ydcV,ydeA,chbC,araG,yehX,pstA,sbp
B,modB,cmr,ssuB,potA,sapB,ddpF,ydgI,chbB,araF,mglC,pstC,glpF
C,modC,potF,uup,nhaB,sapA,ddpD,malX,ydjE,ftn,mglA,pstS,frwC
D,ybhL,potI,yccA,chaA,ycjO,ddpC,btuD,manX,tyrP,mglB,sieB,frwB
E,glnQ,artM,putP,chaB,ycjP,ddpB,btuE,manZ,yecS,lysP,rbsA,frwD
F,glnP,artQ,mdtG,oppD,ycjV,gadC,btuC,puuA,shiA,glvG,rbsC,paaK
G,glnH,artI,ptsG,kch,trkG,yddB,ydjN,ymjB,gatC,glvB,corA,xylE
H,ybiT,artP,potD,sapD,ydcT,ego,chbA,znuB,yegT,bglF,rhaT,malG

57,1,2,3,4,5,6,7,8,9,10,11,12
A,malF,proP,fecE,prfH,rimJ,yncN,hyfH,dsdX,cysA,yphE,sdaC,exbD
B,malE,melB,fecC,queA,rluC,yfbG,yddA,ypdD,cysU,gabP,fucP,exbB
C,malK,dcuB,fecA,tgt,rpmF,truA,fruA,mntH,cysP,proV,ptsP,exuT
D,gltP,cadB,sgcA,ppiB,rimL,hyfB,fruB,nupC,acrD,proW,yqeG,kbaZ
E,alsC,cycA,gntP,rimK,sra,hyfD,yojI,cysZ,focB,srlB,ygfO,agaS
F,alsB,ytfF,fhuF,rumB,rpmI,hyfE,atoE,ptsH,yfgO,ascF,cmtA,kbaY
G,phnD,treB,creD,aat,selD,hyfF,hisP,ptsI,uraA,ygbN,cmtB,agaB
H,hokB,mgtA,yncK,rmf,rrmA,hyfG,hisJ,crr,yphD,gudP,pitB,agaC

59,1,2,3,4,5,6,7,8,9,10,11,12
A,agaI,trkA,ugpE,nikC,dppB,caiF,cyoE,ssuA,ycjM,exoX,fliR,elaC
B,mtr,mscL,ugpA,nikD,xylF,tbpA,ybbW,msyB,mppA,torZ,sbcB,intS
C,yrbF,bfr,ugpB,nikE,xylG,ilvI,dsbG,potB,feaB,cutC,hisB,ddg
D,yneL,kefB,livG,ynfO,xylH,ynfN,citE,trmU,ynfP,cheZ,hisA,cysW
E,ptsN,yheS,livM,dctA,mtlA,afuC,citC,pin,mdoD,araH,mrp,eutB
F,npr,feoA,livH,dppF,gltS,mhpC,modF,trpC,yncB,uvrC,yfaV,eutG
G,dcuD,feoB,livK,dppD,yicE,tauA,ybiH,puuP,adhP,fliZ,pmrD,gcvR
H,rsmB,gntT,nikA,dppC,uhpT,phoA,artJ,pspF,ydeM,fliH,menF,hyfA

61,1,2,3,4,5,6,7,8,9,10,11,12
A,hyfJ,yqgE,agaV,panF,glnE,rpmG,efp,rusA,rtcR,ampE,hyi,tolQ
B,upp,ynfF,yhbT,yhdL,yniD,tatC,miaA,rhlE,arsR,intF,ybcC,tolR
C,smpA,yggL,ynfK,yheV,prmA,dtd,rpsF,torD,ydjK,yahJ,emrE,yeaV
D,csiR,nupG,greA,nirC,rpmJ,rpmE,rplI,dgsA,msrA,frmB,ybcS,cspD
E,ygcM,ynfH,yrbA,frlA,slyD,astD,pmbA,yegW,sgcR,sbmA,borD,ssuD
F,ssnA,exuR,elbB,ydhX,ppiA,ynjD,rsmC,rseC,rob,ampG,nfrB,pqiA
G,bglA,tdcD,nanT,pcm,selB,rpiR,rimI,rseB,surA,ybaA,cstA,pqiB
H,yggJ,yhaB,rng,lysS,selA,lysU,nusB,cpdA,ampD,fsr,mngA,cspG

63,1,2,3,4,5,6,7,8,9,10,11,12
A,intE,racC,cspB,ogrK,yfgD,rfaE,cspA,livJ,recG,glpK,aspA,sgcB
B,ymfG,tynA,cspF,sanA,iscU,acrF,ibpA,arsB,yidE,metL,fxsA,osmY
C,pspA,tehA,rspA,yeiG,intA,gph,yiiT,yhjH,ibpB,thiS,ecnB,yjjV
D,pspB,tehB,nemA,eco,emrA,hslR,htrC,bcsZ,yidB,thiF,rsgA,alsE
E,pspC,nhoA,sufS,ais,emrB,acpT,greB,yiaA,tnaA,iclR,amiB,ampC
F,pspD,marB,cspC,cvpA,surE,yhiO,yhgF,aldB,yieN,nrfB,yjgJ,ulaB
G,pspE,yeaW,yecG,emrY,chpA,uspA,yobH,dinD,tatA,nrfE,fecD,ulaC
H,intR,cspI,wzb,emrK,xdhC,arsC,ugpC,yicG,hemN,yjcQ,fecB,ulaD

65,1,2,3,4,5,6,7,8,9,10,11,12
A,ulaE,yjgZ,ompW,fur,intG,gatR,yqgB,yhaC,yhdW,ligB,yifN,fabR
B,ulaF,yjjB,fliJ,hyfC,chaC,molR,galP,garK,bcr,ysdC,yzcX,phnE
C,chpB,yjjQ,mdoH,tfaE,dos,yoeB,yggN,garL,ccmA,glvC,yifL,melA
D,sgcQ,thrC,oppC,eaeH,fliO,iscS,yghB,garP,yhhH,ilvG,yigM,napB
E,sgcC,asnB,eutI,ybeZ,intQ,gatY,ygjR,agaW,yhiL,ilvG,yihE,yojL
F,yqjK,aroG,ybbO,yedO,yoeF,molR,yeiS,gltB,yhiS,ilvC,dsbA,ytfA
G,yibD,panD,thiD,hcp,arpB,fucK,tdcC,yhcE,hokA,ppiC,yihP,argI
H,yicL,yebQ,pheP,mdoG,yeeF,ygfG,tdcB,yhcE,rph,yifO,frvR,intB

71,1,2,3,4,5,6,7,8,9,10,11,12
A,yihS,yigG,yieK,yicO,sgbU,exo,hdeB,yhhT,ygeW,gspL,yjbO,eptA
B,menD,ucpA,yfgG,yicN,yiaN,amiC,yhiD,yhhS,yhfY,gspI,ygfK,adiA
C,bipA,wzzE,guaB,ttk,yiaB,bcsF,yhiQ,dcrB,yhfU,yrdD,yjcB,yjdO
D,torI,hda,cbrA,yicR,yiaF,yhjQ,yhiK,yhhL,frlR,yjbF,ygfT,dipZ
E,yihF,ilvD,rimM,htrL,tiaE,bcsA,yqeF,xdhA,frlB,yqeC,ygfU,dcuA
F,tatB,trkD,yidQ,yibQ,bisC,bcsC,rbbA,gntX,yhfK,ubiC,yjcS,yjeI
G,yigI,atpI,emrD,yiaY,yhjY,yhjK,yhhJ,hslO,yheO,zur,ygfB,ecnA
H,rarD,yieL,ypjJ,ygaQ,eptB,kdgK,ygeM,yrfA,gspM,yjbN,yjcZ,sugE

73,1,2,3,4,5,6,7,8,9,10,11,12
A,yjeM,yggU,yjgX,yjhA,yjiY,yjjX,yghJ,trkH,dgoR,yjiV,yadD,yafX
B,rnr,ytfT,speC,fimI,yjjN,ybbK,glcE,tatD,dgoA,rzoR,clcA,ykfF
C,yjfO,yjfF,yghE,yghF,mdoB,ygfA,yqhG,yghU,dgoD,hybB,cdaR,yghY
D,ulaA,yjgK,yjhB,yjiD,yjjA,sgcE,ygiQ,rhtB,frlC,yfdI,yaeI,yagV
E,ytfB,yjgL,yjhC,yjiH,yjjP,srlA,yqiI,rhtC,smf,yghX,yaeF,ykgK
F,fklB,yjgM,yjhD,kptA,yjjZ,srlE,yhaM,yigE,hybF,gntR,yafD,ykgL
G,ytfH,yjgN,yjhU,yjiL,yghQ,ygfQ,tdcG,rffT,ytfI,yabI,yafV,ykgA
H,ytfK,yjgX,yjhH,yjiM,yghS,yggP,cpxP,yieM,ytfR,yacG,fadE,ykgI

75,1,2,3,4,5,6,7,8,9,10,11,12
A,ykgG,yajR,cusS,ybgO,ygiB,ycbX,ycdL,ycfP,icdC,dhaK,lar,ygjP
B,yahH,ylaB,ybdF,ybgQ,ybjI,ymbA,ycdZ,ycfQ,ycgG,yciO,ydaG,cybB
C,yahM,ylaC,fepA,ybhT,ybjK,yccS,ymdC,yqiH,ycgH,yciQ,ydaW,ydcI
D,dkgA,ybbM,ybeB,ybhJ,ybjT,yccU,yceK,ymfA,ymgG,yciW,ygjG,ydcM
E,yaiU,ybcJ,ybeQ,ybiX,yqiC,yccX,yceP,ymfE,ycgN,ycjR,ydbL,ydcO
F,yaiZ,fimZ,ybfG,ybiN,ycaI,ymcD,flgH,ymfI,hlyE,abgA,paaD,alx
G,yajI,rzpD,ybfH,ybiO,ycbV,ymdF,yceF,ymfT,dhaH,ydaM,ydbD,yncA
H,yajQ,ybcV,kdpE,fsaA,ycbF,ycdG,ycfM,stfE,dhaL,ydaQ,ygjO,ymgD

77,1,2,3,4,5,6,7,8,9,10,11,12
A,yncM,marR,ydgJ,ydiQ,yeaJ,yebW,yodD,yegP,yehT,yfaZ,ypdA,yphG
B,sfcA,marA,slyA,pfkB,yeaP,yebB,yedS,gatR,yehU,yfbE,ypdH,yphH
C,bdm,eamA,yhaO,ydjY,yoaB,yecD,yodB,fbaB,pbpG,yfbJ,yfeA,yfhK
D,ddpA,ydfO,garR,ynjB,yoaC,yecN,yhbC,yegX,yohC,yfbT,nanK,yfhB
E,yddV,gnsB,ydhO,ynjC,agaA,yecM,dacD,yohN,yohH,yfcE,yfeW,yfiP
F,ydeN,essQ,ydhV,ynjE,proQ,yecT,nudD,yehL,yeiW,trmC,yfgH,yfiL
G,yneE,yqjC,sufB,ynjI,yebU,otsA,yegH,yehP,yeiP,yfcM,yfgJ,yfjD
H,yneI,clcB,ydiO,ydjH,yebV,yraR,mdtA,yehR,yhbX,yfdL,sseB,yfjO

79,1,2,3,4,5,6,7,8,9,10,11,12
A,yfjP,ygbF,yqeJ,mltC,sgcX,yqiG,ybfD,ycjD,ygcK,fkpB,narU,yciX
B,ypjA,yhcB,ygeI,tolC,nadR,yhdP,sthA,yebS,yagL,ubiH,yhfZ,yiiE
C,ypjC,ygcQ,pbl,yhcN,ygcR,rhsA,argB,yphB,modA,gudD,phnE,recO
D,yqaC,ygcE,ygeK,deaD,hyfI,ybfO,metI,yabP,malT,phnM,thrL,ung
E,ygaT,ygcG,ygeN,yhdJ,ybhR,zraP,prpB,yagX,glpR,tag,yijE,recN
F,ygaY,ygdB,ygeQ,yigZ,ycdR,nfi,ydjQ,yaiL,ydhB,ptsA,ylcG,mutS
G,gutQ,ppdB,rpiA,yhdX,yhdY,thiG,yeaN,yliH,rtcB,rspB,kdgT,mutH
H,rpoS,yqeH,ygfI,gspD,ygcU,rhsE,yccK,yedS,yidF,sseA,frvB,xerD

81,1,2,3,4,5,6,7,8,9,10,11,12
A,mutY,gidB,ycdW,crcA,yeaD,yncG,yegD,ybcL,yidR,ybbC,yeeT,yegK
B,yihX,gidA,ycjZ,mviM,yoaD,ydeP,mdtB,ychE,yeaH,ybeH,yeeU,yehD
C,yihW,mioC,ydeO,kil,yadH,ydeH,hinT,yahN,yeiA,ybhQ,yeeV,setB
D,pioO,xerC,ydeV,uspF,gmhB,rsxC,ybgI,yagI,yadM,ycaQ,wbbL,yfbU
E,dam,cueO,yehC,ydfJ,ybiR,ynhG,ydiK,yagT,ykgN,ymfN,wbbK,yfcQ
F,mutM,yihV,yfcS,rem,ycfJ,sufD,yagE,ydiI,yaiT,ydhZ,wbbI,yfdC
G,trmH,ymcC,yfcU,hokD,ynbC,yeaQ,yagF,lsrG,ykiA,yedZ,yegI,yfdP
H,recF,yidX,apaG,dgoT,yncC,yeeO,yeiU,yedY,ybaJ,yeeL,yegJ,yfdS

83,1,2,3,4,5,6,7,8,9,10,11,12
A,yfdY,mdtI,lrhA,aqpZ,yqgC,yhgG,hemY,thrA,flgL,acrE,gabT,mhpB
B,yfeN,yobF,clpB,yrhA,yggS,yzgL,yiiL,iaaA,ompG,rfaC,glcG,dmsB
C,yfgI,yicJ,araC,vacJ,yqhA,gadE,yjaA,astC,aroK,rfaZ,gltD,narG
D,yfjJ,sucD,mngR,yqeK,yraN,gadW,yjbB,entA,ydeR,rfaB,sgbE,narH
E,yfjS,ndh,gcvA,ygeP,yhcC,yhjG,yjhS,smtA,flhE,nlpA,phnO,puuB
F,yfjZ,ompX,rhaS,yfeR,yhdA,yiaL,yjiJ,pabC,flhD,fimG,phnL,fdnH
G,ycgZ,lit,bglH,ygfJ,frlD,yibF,yjiW,menB,pbpC,tsr,phnJ,wbbJ
H,ydfE,dcp,dinG,ygfM,yhfT,yibI,yjiZ,ecpD,ppdA,yagH,phnH,ulaG

85,1,2,3,4,5,6,7,8,9,10,11,12
A,gatZ,fhlA,hybE,prpE,recC,fepG,hisM,alsA,intD,fixA,hpt,ansP
B,napD,fucO,hybA,azoR,udp,kdpB,hisQ,rumA,cspE,lacA,ampH,arpB
C,yfcX,fucA,bfd,carA,purH,yliD,argT,rbfA,ssuE,mhpD,yajL,yohO
D,hycD,fucI,malP,mutT,yidL,narK,argK,tldD,blr,udk,sfmH,pinH
E,hycC,fucU,mtlR,apt,polB,yjiP,mcrB,prfC,folX,yfdE,yobA,guaD
F,hycB,kduD,fdoH,purC,ndk,yecC,yhdZ,acrR,alpA,livF,cspH,ygfS
G,hycA,epd,caiB,guaA,lacY,gatB,nikB,recX,bacA,poxA,ybbP,yhaL
H,hypE,hybG,caiA,recD,acrA,glpT,lldP,nikR,aphA,kgtP,cvrA,tdcE

87,1,2,3,4,5,6,7,8,9,10,11,12
A,aaeX,ycdU,yjhT,ykgB,ychM,tfaS,leuB,ybfE,yddM,yeeJ,yphC,yqjF
B,ybfA,yhiM,yjiT,ykgE,ydbJ,yfdN,pcnB,wcaC,yneF,yeeY,norR,dcuC
C,gldA,yrfD,mcrC,bolA,yncH,cysB,glnD,potG,asr,cld,ygcI,yihO
D,yiiM,yrdA,yjiA,hokE,yebA,ypjM,fhiA,ybjS,ydhL,yegR,ygcS,ysgA
E,yiiF,yjdC,yjjM,ycdT,yeeL,ygdI,mbhA,ycfS,ydiD,yohG,ygeO,yigL
F,mobB,yjfN,glcF,ymdE,yoeA,tdcR,ykfC,emtA,yebN,yejO,dcuC,recQ
G,yieP,yjgF,tnaB,ymfP,molR,hdfR,yaiF,abgT,znuA,elaD,yghO,trxA
H,yicM,yjgB,ygcL,ymfS,nuoC,ylbH,tfaD,ydcH,yedQ,prmB,yqhC,rbsD

89,1,2,3,4,5,6,7,8,9,10,11,12
A,gpp,proY,yfeH,rplA,ymgH,hipB,ydfW,yhjX,ydhM,ykgJ,ybcK,puuC
B,yciB,ynfC,ypeB,ybbN,gntUdkgB,yibK,rtcA,ybcH,yedN,rluD
C,yfeS,ynfD,csiE,abrB,oxyR,ivbL,ypfJ,yicI,yedW,ybgE,yedN,tolB
D,baeR,yeeP,flgM,ybjG,bioH,rzoD,djlC,hokC,ypfH,ypdB,yhdU,ydcX
E,rssB,nohB,yhbO,etp,ubiG,lipB,ybfN,yaaY,ygcW,yeaI,slyX,relE
F,baeS,pitA,rhsB,torS,speB,yliB,ycgJ,ycbW,ycbG,yneJ,flgK,manY
G,atoC,tufB,ydcC,ycdH,rpsT,ybiM,yceG,glxK,ascG,yfjT,secB,yghK
H,prc,nohA,yhhI,ycgH,marC,dmsD,yhjC,dhaR,hflD,ybiC,galK,ddlB

91,1,2,3,4,5,6,7,8,9,10,11,12
A,fecI,yjeF,priA,atpH,dapF,None,None,None,None,None,None,None
B,rseA,rsd,dnaT,atpF,cydD,None,None,None,None,None,None,None
C,fecR,flu,pdxH,atpE,lpxL,None,None,None,None,None,None,None
D,csgC,yrfG,ubiX,atpB,atpG,None,None,None,None,None,None,None
E,ybdA,ybbJ,atpC,gntK,thyA,None,None,None,None,None,None,None
F,ymdA,gpmA,atpD,yahD,envC,None,None,None,None,None,None,None
G,fliA,yfhA,phnN,yggR,usg,None,None,None,None,None,None,None
H,yidD,ydjR,atpA,tolA,ydiA,None,None,None,None,None,None,None

93,1,2,3,4,5,6,7,8,9,10,11,12
A,ybiW,dacC,ldcA,bcsE,mrcA,yfcI,ydgH,yoaG,ydcL,ydcZ,yaaH,ybdZ
B,yccT,ynbB,ycdI,icd,ybeM,wcaE,yegV,yehW,yejE,rcsD,yfbQ,yfeG
C,prpD,paaY,yffI,yadI,yajO,yggT,aaeA,yhhP,yhiJ,mdtE,yibN,yjeK
D,ytfL,sbmC,hsdS,holD,setA,leuL,gdhA,thiI,cobC,mobA,pyrF,purT
E,vsr,purF,znuC,phnC,pps,truB,mqo,fliE,rhoL,ycaM,yjfL,rhsD
F,yafY,ycdC,aidB,yjiK,bglJ,ydhQ,ycfZ,pnp,folB,nuoI,betT,aroD
G,crp,pck,yafZ,rfaH,yrhC,glf,sucA,pflC,yfjY,gadB,yliA,trmA
H,galS,tpiA,ybfQ,dicB,ypdJ,tufA,pflA,phoQ,ybeA,gadA,rzpR,tfaR

